{
  "randomplace": [
    {
      "city": "Nizhniye Achaluki",
      "location": [
        43.3994108,
        44.7585599
      ]
    },
    {
      "city": "Dzüünharaa",
      "location": [
        48.8459103,
        106.4515929
      ]
    },
    {
      "city": "Vale Maceiras",
      "location": [
        39.0038214,
        -7.5598116
      ]
    },
    {
      "city": "Guantánamo",
      "location": [
        20.1400094,
        -75.2128996
      ]
    },

    {
      "city": "Stopnica",
      "location": [
        50.4406629,
        20.938154
      ]
    },
    {
      "city": "Sanxianling",
      "location": [
        27.171779,
        111.62224
      ]
    },

    {
      "city": "Samamiya",
      "location": [
        11.3460734,
        9.6591939
      ]
    },

    {
      "city": "Bakunase",
      "location": [
        -10.1863866,
        123.586797
      ]
    },

    {
      "city": "Ninove",
      "location": [
        50.8441986,
        3.9438609
      ]
    },

    {
      "city": "Chengbei",
      "location": [
        36.650038,
        101.766228
      ]
    },
    
    {
      "city": "Santa Maria",
      "location": [
        -29.68725,
        -53.8154499
	]
    },

    {
      "city": "Zaoshi",
      "location": [
        26.6674,
        113.449709
	]
    },
    
    {
      "city": "Matango",
      "location": [
        -4.6633041,
        120.0141251
	]
    },

    {
      "city": "Manassas",
      "location": [
        27.6112399,
        -81.6621917
	]
    },

    {
      "city": "Fengchuan",
      "location": [
        29.809116,
        119.781131
	]
    },

    {
      "city": "Tanlad",
      "location": [
        14.4588552,
        121.001601
	]
    },

    {
      "city": "Jaguariaíva",
      "location": [
        -24.2530306,
        -49.7106625
	]
    },

    {
      "city": "Lamalewo",
      "location": [
        -8.5697306,
        123.3991028
	]
    },

    {
      "city": "Beijós",
      "location": [
        40.5077508,
        -7.9582238
	]
    },

    {
      "city": "Mengzhai",
      "location": [
        23.396201,
        103.364905
	]
    },
    {
      "city": "La Huerta",
      "location": [
        19.4840721,
        -99.2304004
	]
    },

    {
      "city": "Nyalindung",
      "location": [
        -7.0054878,
        106.9240554
	]
    },

    {
      "city": "Kamal",
      "location": [
        -6.1014059,
        106.6969285
	]
    },

    {
      "city": "Pancheng",
      "location": [
        33.347316,
        120.16366
	]
    },

    {
      "city": "Paris 20",
      "location": [
        43.4945737,
        5.8978018
	]
    },

    {
      "city": "Paka",
      "location": [
        -8.7820436,
        120.4155972
	]
    },

    {
      "city": "Lysychovo",
      "location": [
        48.4959725,
        23.2844139
    ]
    },

    {
      "city": "Gucheng",
      "location": [
        37.347409,
        115.965874
	]
    },

    {
      "city": "Yong’an",
      "location": [
        25.941937,
        117.365052
	]
    },

    {
      "city": "Kosong",
      "location": [
        38.6675581,
        128.3176776
	]
    },

    {
      "city": "Yangtan",
      "location": [
        28.260189,
        117.069202
	]
    },

    {
      "city": "Buarcos",
      "location": [
        40.1638631,
        -8.8615847
	]
    },

    {
      "city": "Angers",
      "location": [
        48.8693156,
        2.3501981
	]
    },

    {
      "city": "Fengle",
      "location": [
        30.8346,
        117.552738
	]
    },

    {
      "city": "Mullsjö",
      "location": [
        57.9250754,
        13.8832143
	]
    },

    {
      "city": "Oenunu",
      "location": [
        -9.8543,
        124.2531
	]
    },

    {
      "city": "Cikadu",
      "location": [
        -7.2929068,
        107.2666396
	]
    },

    {
      "city": "Moriya",
      "location": [
        37.3329941,
        140.2344463
	]
    },

    {
      "city": "Candelária",
      "location": [
        -29.7132471,
        -52.8312661
	]
    },

    {
      "city": "Sodankylä",
      "location": [
        67.4020883,
        26.6725662
	]
    },

    {
      "city": "Sollefteå",
      "location": [
        63.1747832,
        17.2654819
	]
    },

    {
      "city": "Potosí",
      "location": [
        -19.5722805,
        -65.7550063
	]
    },

    {
      "city": "Xiyang",
      "location": [
        37.612712,
        113.707184
	]
    },

    {
      "city": "Vårby",
      "location": [
        59.2527176,
        17.8864717
	]
    },

    {
      "city": "Odiong",
      "location": [
        11.536819,
        122.489398
	]
    },

    {
      "city": "Suzhou",
      "location": [
        31.298974,
        120.585289
	]
    },

    {
      "city": "Ndago",
      "location": [
        -4.6,
        34.35
	]
    },

    {
      "city": "Gaiyang",
      "location": [
        26.647661,
        106.630153
	]
    },

    {
      "city": "Świebodzice",
      "location": [
        50.8822214,
        16.3195565
	]
    },

    {
      "city": "Guintubhan",
      "location": [
        10.2060924,
        122.9611892
	]
    }
  ]
}